<svg id="Placeholder" data-name="Placeholder" xmlns="http://www.w3.org/2000/svg" viewBox="0 0 175 175">
    <defs>
        <style/>
    </defs>
    <title>
        ActiveLivingPhysio_Placeholder
    </title>
    <g class="SVG-container">
        <g>
            <rect class="background" width="175" height="175"/>
        </g>
        <g>
            <path class="foreground" d="M98.31,137.65c9.25-3.15,18.39-7,28.13-8.49,8.06-1.19,19.89-1.55,22.53,8.25,1.07,7.25-6.53,12.37-12.06,15.33-6.51,3.48-14,4.78-21.29,5.12H59.38c-7.3-.34-14.78-1.64-21.29-5.12-5.53-3-13.13-8.08-12.06-15.33A11.4,11.4,0,0,1,35.79,129c10.28-1.1,20.46,1.54,30.11,4.82,8.29,2.82,16.69,5.6,24.81,8.87a79.17,79.17,0,0,0,10.94,4.17,78.23,78.23,0,0,0,7.94,1.93"/>
            <path class="foreground" d="M79.1,17.14v6.2a7.06,7.06,0,0,1-2.74,5.59L65.51,37.35Q58.3,42.5,51.1,47.62a6.57,6.57,0,0,0-2.7,3,6.54,6.54,0,0,0,.17,3.5c2.52,10.46,6.52,20.46,10.35,30.49,3.7,9.68,8.64,20.45,8.84,30.94a40.12,40.12,0,0,1-1.42,11.32"/>
            <path class="foreground" d="M92.44,61.54c0,.39,0,.76,0,1.15,0,0,0,6.08-2,10a.36.36,0,0,1,0,.09,7.55,7.55,0,0,1-6,3.8,7.15,7.15,0,0,1-6.53-3.79h0l0-.09C75.74,68.42,75.74,62,75.74,62c0-.46,0-.92,0-1.37s.05-1.13.09-1.67a9.57,9.57,0,0,1,1.65-4.69,8,8,0,0,1,2-2l0,0a8.44,8.44,0,0,1,5.54-1.37,7.71,7.71,0,0,1,2.74.82c.28.16.55.32.79.49a9.87,9.87,0,0,1,3.72,6.36A29.64,29.64,0,0,1,92.44,61.54Z"/>
            <path class="foreground" d="M80.34,75.45l-1.29,5.13a3.85,3.85,0,0,1-3.73,2.91h0a3.85,3.85,0,0,1-3.52-2.28c-3-6.69-11.55-25.89-11.67-27.1"/>
            <path class="foreground" d="M102,127.3A33.22,33.22,0,0,1,100,115.84c0-7.88,4.9-19.07,8.32-27.46,4.54-11.17,8.75-22.58,11.51-34.3a6.44,6.44,0,0,0,.17-3.5,6.59,6.59,0,0,0-2.7-3q-7.2-5.11-14.41-10.27L92,28.94a7.08,7.08,0,0,1-2.74-5.6v-6.2"/>
            <path class="foreground" d="M88,75.46l1.29,5.12a3.85,3.85,0,0,0,3.74,2.92h0a3.86,3.86,0,0,0,3.51-2.28c3-6.69,11.55-25.9,11.67-27.1"/>
        </g>
        <g>
            <path class="foregroundHover" d="M98.31,137.65c9.25-3.15,18.39-7,28.13-8.49,8.06-1.19,19.89-1.55,22.53,8.25,1.07,7.25-6.53,12.37-12.06,15.33-6.51,3.48-14,4.78-21.29,5.12H59.38c-7.3-.34-14.78-1.64-21.29-5.12-5.53-3-13.13-8.08-12.06-15.33A11.4,11.4,0,0,1,35.79,129c10.28-1.1,20.46,1.54,30.11,4.82,8.29,2.82,16.69,5.6,24.81,8.87a79.17,79.17,0,0,0,10.94,4.17,78.23,78.23,0,0,0,7.94,1.93"/>
            <path class="foregroundHover" d="M79.1,17.14v6.2a7.06,7.06,0,0,1-2.74,5.59L65.51,37.35Q58.3,42.5,51.1,47.62a6.57,6.57,0,0,0-2.7,3,6.54,6.54,0,0,0,.17,3.5c2.52,10.46,6.52,20.46,10.35,30.49,3.7,9.68,8.64,20.45,8.84,30.94a40.12,40.12,0,0,1-1.42,11.32"/>
            <path class="foregroundHover" d="M92.44,61.54c0,.39,0,.76,0,1.15,0,0,0,6.08-2,10a.36.36,0,0,1,0,.09,7.55,7.55,0,0,1-6,3.8,7.15,7.15,0,0,1-6.53-3.79h0l0-.09C75.74,68.42,75.74,62,75.74,62c0-.46,0-.92,0-1.37s.05-1.13.09-1.67a9.57,9.57,0,0,1,1.65-4.69,8,8,0,0,1,2-2l0,0a8.44,8.44,0,0,1,5.54-1.37,7.71,7.71,0,0,1,2.74.82c.28.16.55.32.79.49a9.87,9.87,0,0,1,3.72,6.36A29.64,29.64,0,0,1,92.44,61.54Z"/>
            <path class="foregroundHover" d="M80.34,75.45l-1.29,5.13a3.85,3.85,0,0,1-3.73,2.91h0a3.85,3.85,0,0,1-3.52-2.28c-3-6.69-11.55-25.89-11.67-27.1"/>
            <path class="foregroundHover" d="M102,127.3A33.22,33.22,0,0,1,100,115.84c0-7.88,4.9-19.07,8.32-27.46,4.54-11.17,8.75-22.58,11.51-34.3a6.44,6.44,0,0,0,.17-3.5,6.59,6.59,0,0,0-2.7-3q-7.2-5.11-14.41-10.27L92,28.94a7.08,7.08,0,0,1-2.74-5.6v-6.2"/>
            <path class="foregroundHover" d="M88,75.46l1.29,5.12a3.85,3.85,0,0,0,3.74,2.92h0a3.86,3.86,0,0,0,3.51-2.28c3-6.69,11.55-25.9,11.67-27.1"/>
        </g>
    </g>
</svg>
