<svg id="Vrstva_1" data-name="Vrstva 1" xmlns="http://www.w3.org/2000/svg" viewBox="0 0 500 80">
    <defs>
        <style>
        .flower {
            fill: #603694;
        }

        .line {
            fill: none;
            stroke: rgba(34, 34, 34, 1);
            stroke-miterlimit: 10;
            stroke-width: 2px;
            stroke-dasharray: 1000;
            stroke-dashoffset: 1000;
            animation: draw-in 3s linear forwards;
        }

        @keyframes draw-in {
        	to {
				stroke-dashoffset:0;
        	}
        }


        </style>
    </defs>
    <title>flower</title>
    <g id="flowerbreak">
        <path class="flower" d="M270,23.69a3.24,3.24,0,0,1-2.32-1,3.29,3.29,0,0,1,4.65-4.66h0a3.31,3.31,0,0,1,0,4.66A3.26,3.26,0,0,1,270,23.69Zm0-5a1.68,1.68,0,0,0-1.21.51,1.71,1.71,0,0,0,0,2.42,1.69,1.69,0,0,0,2.42,0,1.71,1.71,0,0,0,0-2.42A1.68,1.68,0,0,0,270,18.67Z" />
        <path class="flower" d="M230,23.69a3.3,3.3,0,1,1,2.33-5.63h0a3.31,3.31,0,0,1,0,4.66A3.26,3.26,0,0,1,230,23.69Zm0-5a1.68,1.68,0,0,0-1.21.51,1.71,1.71,0,0,0,0,2.42,1.69,1.69,0,0,0,2.42,0,1.71,1.71,0,0,0,0-2.42A1.68,1.68,0,0,0,230,18.67Z" />
        <path class="flower" d="M270,62.47a3.3,3.3,0,1,1,2.33-5.63h0A3.3,3.3,0,0,1,270,62.47Zm0-5a1.67,1.67,0,0,0-1.21.5,1.71,1.71,0,1,0,2.42,0A1.67,1.67,0,0,0,270,57.46Z" />
        <path class="flower" d="M230,62.47a3.3,3.3,0,1,1,2.33-5.63h0A3.3,3.3,0,0,1,230,62.47Zm0-5a1.67,1.67,0,0,0-1.21.5,1.71,1.71,0,1,0,2.42,0A1.67,1.67,0,0,0,230,57.46Z" />
        <path class="flower" d="M236.46,55.27c-8.25,0-20.35-14.16-20.86-14.76l-.44-.51.44-.51c.51-.61,12.61-14.76,20.86-14.76a13.75,13.75,0,0,1,9.84,4.2A15.65,15.65,0,0,1,250.79,40C250.67,48.71,244.51,55.27,236.46,55.27ZM217.25,40c2.25,2.54,12.51,13.69,19.21,13.69,7.16,0,12.64-5.89,12.75-13.7a14.24,14.24,0,0,0-4-10,12.18,12.18,0,0,0-8.72-3.73C229.76,26.31,219.5,37.46,217.25,40Z" />
        <path class="flower" d="M250,74.93l-.51-.44c-.6-.51-14.72-12.65-14.72-20.91A13.83,13.83,0,0,1,239,43.71a15.71,15.71,0,0,1,11-4.5c8.68.12,15.22,6.3,15.22,14.37,0,8.26-14.12,20.4-14.72,20.91Zm-.18-34.14a14.16,14.16,0,0,0-9.76,4.05,12.22,12.22,0,0,0-3.72,8.74c0,6.71,11.12,17,13.66,19.26,2.54-2.26,13.66-12.55,13.66-19.26,0-7.18-5.88-12.68-13.67-12.79Z" />
        <path class="flower" d="M263.54,55.27a13.75,13.75,0,0,1-9.84-4.2A15.65,15.65,0,0,1,249.21,40c.12-8.7,6.28-15.26,14.33-15.26,8.25,0,20.35,14.15,20.86,14.76l.44.51-.44.51C283.89,41.11,271.79,55.27,263.54,55.27Zm0-29c-7.16,0-12.64,5.89-12.75,13.7a14.24,14.24,0,0,0,4,10,12.18,12.18,0,0,0,8.72,3.73c6.7,0,17-11.15,19.21-13.69C280.5,37.46,270.24,26.31,263.54,26.31Z" />
        <path class="flower" d="M250.19,40.79H250c-8.68-.12-15.22-6.3-15.22-14.37,0-8.27,14.12-20.4,14.72-20.92l.51-.43.51.43c.6.52,14.72,12.65,14.72,20.92A13.85,13.85,0,0,1,261,36.29,15.57,15.57,0,0,1,250.19,40.79ZM250,7.16c-2.54,2.26-13.66,12.55-13.66,19.26,0,7.18,5.88,12.68,13.67,12.79a13.91,13.91,0,0,0,9.93-4.05,12.24,12.24,0,0,0,3.72-8.74C263.66,19.71,252.54,9.42,250,7.16Z" />
        <line class="line la" x1="208.65" y1="39.54" x2="6.5" y2="39.54" />
        <line class="line lb" x1="290.85" y1="39.54" x2="493.01" y2="39.54" />
    </g>
</svg>

